{
  "compilerOptions": {
    "module": "commonjs",
    "target": "ES2019",
    "sourceMap": true,
    "outDir": "dist",
    "skipLibCheck": true,
    "esModuleInterop": true,
    "resolveJsonModule": true,
    "forceConsistentCasingInFileNames": true
  },
  "exclude": [
    "node_modules"
  ]
}